<svg width="381" height="38" viewBox="0 0 381 38" fill="none" xmlns="http://www.w3.org/2000/svg">
<path d="M29.7402 37H22.1963V21.5947H8.06055V37H0.492188V1.30664H8.06055V15.2959H22.1963V1.30664H29.7402V37ZM59.3301 37H38.7734V1.30664H59.3301V7.50781H46.3418V15.3447H58.4268V21.5459H46.3418V30.75H59.3301V37ZM66.8008 1.30664H77.9092C82.971 1.30664 86.6413 2.03092 88.9199 3.47949C91.2148 4.91178 92.3623 7.19857 92.3623 10.3398C92.3623 12.472 91.8577 14.2217 90.8486 15.5889C89.8558 16.9561 88.5293 17.778 86.8691 18.0547V18.2988C89.1315 18.8034 90.7591 19.7474 91.752 21.1309C92.7611 22.5143 93.2656 24.3535 93.2656 26.6484C93.2656 29.9036 92.0856 32.4427 89.7256 34.2656C87.3818 36.0885 84.1917 37 80.1553 37H66.8008V1.30664ZM74.3691 15.4424H78.7637C80.8145 15.4424 82.2956 15.125 83.207 14.4902C84.1348 13.8555 84.5986 12.8057 84.5986 11.3408C84.5986 9.97363 84.0941 8.99707 83.085 8.41113C82.0921 7.80892 80.5133 7.50781 78.3486 7.50781H74.3691V15.4424ZM74.3691 21.4482V30.75H79.3008C81.3841 30.75 82.9222 30.3512 83.915 29.5537C84.9079 28.7562 85.4043 27.5355 85.4043 25.8916C85.4043 22.9294 83.2884 21.4482 79.0566 21.4482H74.3691ZM122.245 37L119.657 28.5039H106.645L104.057 37H95.9023L108.5 1.16016H117.753L130.399 37H122.245ZM117.851 22.1562C115.458 14.4577 114.107 10.1038 113.798 9.09473C113.505 8.08561 113.293 7.28809 113.163 6.70215C112.626 8.78548 111.088 13.9368 108.549 22.1562H117.851ZM145.414 26.3555V20.7402H191.41V26.3555H145.414ZM233.158 19.1533C233.158 25.387 232.133 30.0013 230.082 32.9961C228.048 35.9909 224.906 37.4883 220.658 37.4883C216.54 37.4883 213.432 35.9421 211.332 32.8496C209.249 29.7572 208.207 25.1917 208.207 19.1533C208.207 12.8545 209.224 8.21582 211.259 5.2373C213.293 2.24251 216.426 0.745117 220.658 0.745117C224.776 0.745117 227.885 2.30762 229.984 5.43262C232.1 8.55762 233.158 13.1312 233.158 19.1533ZM215.702 19.1533C215.702 23.5316 216.076 26.6729 216.825 28.5771C217.59 30.4652 218.868 31.4092 220.658 31.4092C222.416 31.4092 223.686 30.4489 224.467 28.5283C225.248 26.6077 225.639 23.4827 225.639 19.1533C225.639 14.7751 225.24 11.6338 224.442 9.72949C223.661 7.80892 222.4 6.84863 220.658 6.84863C218.884 6.84863 217.615 7.80892 216.85 9.72949C216.085 11.6338 215.702 14.7751 215.702 19.1533ZM255.619 37H248.075V16.3457L248.148 12.9521L248.271 9.24121C247.017 10.4945 246.146 11.3164 245.658 11.707L241.557 15.0029L237.919 10.4619L249.418 1.30664H255.619V37ZM278.52 26.3555V20.7402H324.516V26.3555H278.52ZM364.408 26.1602H364.75C367.37 26.1602 369.421 25.4766 370.902 24.1094C372.4 22.7259 373.148 20.8379 373.148 18.4453C373.148 16.2318 372.457 14.4577 371.073 13.123C369.69 11.7721 367.802 11.0967 365.409 11.0967H364.408V26.1602ZM357.597 37.4883V31.9951H357.06C354.032 31.9951 351.379 31.4661 349.101 30.4082C346.822 29.334 345.023 27.7308 343.705 25.5986C342.403 23.4665 341.752 21.0983 341.752 18.4941C341.752 15.9714 342.33 13.7008 343.485 11.6826C344.657 9.64811 346.342 8.0612 348.539 6.92188C350.736 5.76628 353.324 5.18848 356.303 5.18848H357.597V0.793945H364.408V5.18848H365.702C368.664 5.18848 371.244 5.76628 373.441 6.92188C375.639 8.0612 377.323 9.64811 378.495 11.6826C379.667 13.7008 380.253 15.9714 380.253 18.4941C380.253 21.0983 379.594 23.4665 378.275 25.5986C376.973 27.7308 375.183 29.334 372.904 30.4082C370.626 31.4661 367.973 31.9951 364.945 31.9951H364.408V37.4883H357.597ZM357.597 11.0967H356.596C354.203 11.0967 352.315 11.764 350.932 13.0986C349.548 14.4333 348.856 16.2155 348.856 18.4453C348.856 20.7891 349.589 22.6608 351.054 24.0605C352.519 25.4603 354.586 26.1602 357.255 26.1602H357.597V11.0967Z" fill="black"/>
</svg>
